High Hopes: A Data-Driven Deep Dive into Washington’s Cannabis Market (2024–2025)
…
# Make a comparison table
ngram_table <- ngram_results %>%
  select(licensee_dba, n_gram, ngram, tf_idf) %>%
  arrange(licensee_dba, n_gram, desc(tf_idf)) %>%
  group_by(licensee_dba, n_gram) %>%
  mutate(rank = row_number()) %>%
  pivot_wider(names_from = n_gram, values_from = ngram) %>%
  select(licensee_dba, rank, `1-gram`, `2-gram`, `3-gram`)

# Show the table
print(ngram_table, n = 50)

## # A tibble: 75 × 5
## # Groups:   licensee_dba [5]
##    licensee_dba                  rank `1-gram`         `2-gram`         `3-gram`
##    <chr>                        <int> <chr>            <chr>            <chr>   
##  1 FORBIDDEN FARMS                  1 <NA>             dirty white girl <NA>    
##  2 FORBIDDEN FARMS                  2 <NA>             house blend ind… <NA>    
##  3 FORBIDDEN FARMS                  3 <NA>             pound cake gela… <NA>    
##  4 FORBIDDEN FARMS                  4 <NA>             face off og      <NA>    
##  5 FORBIDDEN FARMS                  1 <NA>             <NA>             mandari…
##  6 FORBIDDEN FARMS                  2 <NA>             <NA>             blueber…
##  7 FORBIDDEN FARMS                  3 <NA>             <NA>             mandari…
##  8 FORBIDDEN FARMS                  4 <NA>             <NA>             orange …
##  9 FORBIDDEN FARMS                  5 <NA>             <NA>             pink ce…
## 10 FORBIDDEN FARMS                  6 <NA>             <NA>             blueber…
## 11 FORBIDDEN FARMS                  1 <NA>             <NA>             <NA>    
## 12 FORBIDDEN FARMS                  2 <NA>             <NA>             <NA>    
## 13 FORBIDDEN FARMS                  3 <NA>             <NA>             <NA>    
## 14 FORBIDDEN FARMS                  1 <NA>             <NA>             <NA>    
## 15 FORBIDDEN FARMS                  1 <NA>             <NA>             <NA>    
## 16 LIFTED CANNABIS                  1 south florida og <NA>             <NA>    
## 17 LIFTED CANNABIS                  1 <NA>             <NA>             <NA>    
## 18 LIFTED CANNABIS                  2 <NA>             <NA>             <NA>    
## 19 LIFTED CANNABIS                  3 <NA>             <NA>             <NA>    
## 20 LIFTED CANNABIS                  1 <NA>             <NA>             <NA>    
## 21 LIFTED CANNABIS                  2 <NA>             <NA>             <NA>    
## 22 LIFTED CANNABIS                  1 <NA>             <NA>             <NA>    
## 23 LIFTED CANNABIS                  1 <NA>             <NA>             <NA>    
## 24 LIFTED CANNABIS                  1 <NA>             <NA>             <NA>    
## 25 LIFTED CANNABIS                  2 <NA>             <NA>             <NA>    
## 26 LIFTED CANNABIS                  1 <NA>             <NA>             <NA>    
## 27 LIFTED CANNABIS                  2 <NA>             <NA>             <NA>    
## 28 LIFTED CANNABIS                  3 <NA>             <NA>             <NA>    
## 29 LIFTED CANNABIS                  4 <NA>             <NA>             <NA>    
## 30 LIFTED CANNABIS                  1 <NA>             <NA>             <NA>    
## 31 NORTHWEST CANNABIS SOLUTIONS     1 <NA>             <NA>             <NA>    
## 32 NORTHWEST CANNABIS SOLUTIONS     1 <NA>             <NA>             <NA>    
## 33 NORTHWEST CANNABIS SOLUTIONS     2 <NA>             <NA>             <NA>    
## 34 NORTHWEST CANNABIS SOLUTIONS     1 <NA>             <NA>             <NA>    
## 35 NORTHWEST CANNABIS SOLUTIONS     2 <NA>             <NA>             <NA>    
## 36 NORTHWEST CANNABIS SOLUTIONS     3 <NA>             <NA>             <NA>    
## 37 NORTHWEST CANNABIS SOLUTIONS     1 <NA>             <NA>             <NA>    
## 38 NORTHWEST CANNABIS SOLUTIONS     1 <NA>             cream cake bx    <NA>    
## 39 NORTHWEST CANNABIS SOLUTIONS     2 <NA>             do si dos        <NA>    
## 40 NORTHWEST CANNABIS SOLUTIONS     3 <NA>             gary peyton ore… <NA>    
## 41 NORTHWEST CANNABIS SOLUTIONS     1 <NA>             <NA>             <NA>    
## 42 NORTHWEST CANNABIS SOLUTIONS     2 <NA>             <NA>             <NA>    
## 43 NORTHWEST CANNABIS SOLUTIONS     1 <NA>             <NA>             <NA>    
## 44 NORTHWEST CANNABIS SOLUTIONS     1 <NA>             <NA>             <NA>    
## 45 NORTHWEST CANNABIS SOLUTIONS     1 <NA>             <NA>             <NA>    
## 46 THE HERBERY                      1 <NA>             <NA>             <NA>    
## 47 THE HERBERY                      2 <NA>             <NA>             <NA>    
## 48 THE HERBERY                      1 <NA>             <NA>             <NA>    
## 49 THE HERBERY                      2 <NA>             <NA>             <NA>    
## 50 THE HERBERY                      3 <NA>             <NA>             <NA>    
## # ℹ 25 more rows
…
